Trabajo de Estadística
…
Pivotar el Data Frame de
formato ancho a largo

library(tidyr)

# Pivoteo del Data Frame de formato ancho a largo
df_largo <- df %>%
  pivot_longer(cols = c("age", "hypertension", "bmi", "heart_disease", "diabetes"),
               names_to = "variable",
               values_to = "valor")

# Visualización del nuevo Data Frame
print(df_largo)

## # A tibble: 2,500 × 10
##    gender smoking_history HbA1c_level blood_glucose_…¹ edad_…² riesg…³ fumador estad…⁴ varia…⁵ valor
##    <chr>  <chr>                 <dbl>            <int>   <int> <chr>   <lgl>   <chr>   <chr>   <dbl>
##  1 Female never                   6.6              140     960 alto    FALSE   predia… age      80  
##  2 Female never                   6.6              140     960 alto    FALSE   predia… hypert…   0  
##  3 Female never                   6.6              140     960 alto    FALSE   predia… bmi      25.2
##  4 Female never                   6.6              140     960 alto    FALSE   predia… heart_…   1  
##  5 Female never                   6.6              140     960 alto    FALSE   predia… diabet…   0  
##  6 Male   never                   5.7              158     336 bajo    FALSE   predia… age      28  
##  7 Male   never                   5.7              158     336 bajo    FALSE   predia… hypert…   0  
##  8 Male   never                   5.7              158     336 bajo    FALSE   predia… bmi      27.3
##  9 Male   never                   5.7              158     336 bajo    FALSE   predia… heart_…   0  
## 10 Male   never                   5.7              158     336 bajo    FALSE   predia… diabet…   0  
## # … with 2,490 more rows, and abbreviated variable names ¹​blood_glucose_level, ²​edad_en_meses,
## #   ³​riesgo_cardiovascular, ⁴​estado_diabetes, ⁵​variable
…
